{
  "name": "Fastlog Era Mandiri",
  "short_name": "Fastlog Era Mandiri",
  "description": "Aplikasi Fastlog Era Mandiri",
  "icons": [
    {
      "src": "/assets/img/logo.png",
      "sizes": "200x200",
      "type": "image/png"
    }
  ],
  "background_color": "#D5E0EB",
  "theme_color": "#D5E0EB",
  "display": "standalone",
  "orientation": "portrait-primary",
  "start_url": "https://demo.fastlogem.co.id",
  "scope": "https://demo.fastlogem.co.id"
}